module minhho/oauth2

go 1.17

require (
	github.com/gin-gonic/gin v1.7.7
	github.com/gofrs/uuid v4.0.0+incompatible
	github.com/golang-jwt/jwt v3.2.2+incompatible
	gorm.io/gorm v1.23.5
	minhho/db v0.0.0-00010101000000-000000000000
	minhho/env v1.0.0
	minhho/handers v1.0.0
	minhho/helpers v1.0.0
	minhho/migrations v1.0.0
)

require (
	github.com/gin-contrib/sse v0.1.0 // indirect
	github.com/go-playground/locales v0.14.0 // indirect
	github.com/go-playground/universal-translator v0.18.0 // indirect
	github.com/go-playground/validator/v10 v10.10.1 // indirect
	github.com/go-sql-driver/mysql v1.6.0 // indirect
	github.com/golang/protobuf v1.5.2 // indirect
	github.com/jackc/chunkreader/v2 v2.0.1 // indirect
	github.com/jackc/pgconn v1.12.0 // indirect
	github.com/jackc/pgio v1.0.0 // indirect
	github.com/jackc/pgpassfile v1.0.0 // indirect
	github.com/jackc/pgproto3/v2 v2.3.0 // indirect
	github.com/jackc/pgservicefile v0.0.0-20200714003250-2b9c44734f2b // indirect
	github.com/jackc/pgtype v1.11.0 // indirect
	github.com/jackc/pgx/v4 v4.16.0 // indirect
	github.com/jinzhu/inflection v1.0.0 // indirect
	github.com/jinzhu/now v1.1.5 // indirect
	github.com/joho/godotenv v1.4.0 // indirect
	github.com/json-iterator/go v1.1.12 // indirect
	github.com/leodido/go-urn v1.2.1 // indirect
	github.com/mattn/go-isatty v0.0.14 // indirect
	github.com/modern-go/concurrent v0.0.0-20180306012644-bacd9c7ef1dd // indirect
	github.com/modern-go/reflect2 v1.0.2 // indirect
	github.com/ugorji/go/codec v1.2.7 // indirect
	golang.org/x/crypto v0.0.0-20220427172511-eb4f295cb31f // indirect
	golang.org/x/sys v0.0.0-20220422013727-9388b58f7150 // indirect
	golang.org/x/text v0.3.7 // indirect
	google.golang.org/protobuf v1.28.0 // indirect
	gopkg.in/yaml.v2 v2.4.0 // indirect
	gorm.io/driver/mysql v1.3.3 // indirect
	gorm.io/driver/postgres v1.3.5 // indirect
)

replace (
	minhho/db => ./pkg/db
	minhho/env => ./pkg/env
	minhho/handers => ./pkg/handlers
	minhho/helpers => ./pkg/helpers
	minhho/migrations => ./pkg/migrations
)
